# A tibble: 2 × 5
  infection  Mean    SD     n   Rep
  <chr>     <dbl> <dbl> <int> <int>
1 w-         19.0  2.34   332     5
2 w+         18.7  2.48   529     5
# A tibble: 26 × 5
# Groups:   infection [2]
   infection  temp   Mean     SD     SE
   <chr>     <dbl>  <dbl>  <dbl>  <dbl>
 1 w-           16 0.194  0.156  0.0899
 2 w-           17 0.280  0.142  0.0634
 3 w-           18 0.194  0.102  0.0457
 4 w-           19 0.0906 0.0342 0.0153
 5 w-           20 0.0683 0.0829 0.0414
 6 w-           21 0.0489 0.0339 0.0152
 7 w-           22 0.0609 0.0410 0.0183
 8 w-           23 0.0617 0.0488 0.0218
 9 w-           24 0.0682 0.0549 0.0274
10 w-           25 0.0417 0.0297 0.0171
# … with 16 more rows
# ℹ Use `print(n = ...)` to see more rows
…
